GEOG0030
…
# for split LSOAs: weigh individual crimes proportionally to the number of 2021
# LSOAs
lsoa_lookup_split <- lsoa_lookup |>
    filter(CHGIND == "S") |>
    group_by(LSOA11CD) |>
    mutate(n = 1/n())

# re-combine the lookup with updated weightings
lsoa_lookup <- rbind(lsoa_lookup_same, lsoa_lookup_merge, lsoa_lookup_split)

# inspect
lsoa_lookup

# A tibble: 35,786 × 10
# Groups:   LSOA11CD [34,747]
   LSOA11CD LSOA1…¹ LSOA2…² LSOA2…³ CHGIND LAD22CD LAD22NM LAD22…⁴ Objec…⁵     n
   <chr>    <chr>   <chr>   <chr>   <chr>  <chr>   <chr>   <chr>     <dbl> <dbl>
 1 E010000… City o… E01000… City o… U      E09000… City o… <NA>          1     1
 2 E010000… City o… E01000… City o… U      E09000… City o… <NA>          2     1
 3 E010000… City o… E01000… City o… U      E09000… City o… <NA>          3     1
 4 E010000… City o… E01000… City o… U      E09000… City o… <NA>          4     1
 5 E010000… Barkin… E01000… Barkin… U      E09000… Barkin… <NA>          5     1
 6 E010000… Barkin… E01000… Barkin… U      E09000… Barkin… <NA>          6     1
 7 E010000… Barkin… E01000… Barkin… U      E09000… Barkin… <NA>          7     1
 8 E010000… Barkin… E01000… Barkin… U      E09000… Barkin… <NA>          8     1
 9 E010000… Barkin… E01000… Barkin… U      E09000… Barkin… <NA>          9     1
10 E010000… Barkin… E01000… Barkin… U      E09000… Barkin… <NA>         10     1
# … with 35,776 more rows, and abbreviated variable names ¹​LSOA11NM, ²​LSOA21CD,
#   ³​LSOA21NM, ⁴​LAD22NMW, ⁵​ObjectId
…
Python always starts its index from 0, whereas R’s index starts at 1.

R is unable to index the characters within strings. This is something you can do in Python, but in R, we will need to use a function such as substring().

We can also apply these selection techniques to dataframes, but we will have a little more functionality as our dataframes are made from both rows and columns. This means when it comes to selections, we can utilise an amended selection syntax that follows a specific format to select individual rows, columns, slices of each, or just a single cell: [rows, columns]

There are many ways we can use this syntax, which we will show below using our lsoa_lookup dataframe. To select a single column from your dataframe, you can use one of two approaches. First we can follow the syntax above carefully and simply set our column parameter in our syntax above to the number 2:

R code

# select the second column from the dataframe
lsoa_lookup[, 2]

# A tibble: 35,786 × 1
   LSOA11NM                 
   <chr>                    
 1 City of London 001A      
 2 City of London 001B      
 3 City of London 001C      
 4 City of London 001E      
 5 Barking and Dagenham 016A
 6 Barking and Dagenham 015A
 7 Barking and Dagenham 015B
 8 Barking and Dagenham 016B
 9 Barking and Dagenham 016C
10 Barking and Dagenham 015D
# … with 35,776 more rows

You should see your second column display in your console. Second, we can actually select our column by only typing in the number (no need for the comma). By default, when there is only one argument present in the selection brackets, R will select the column from the dataframe, not the row:

R code

# select the second column from the dataframe
lsoa_lookup[2]

# A tibble: 35,786 × 1
   LSOA11NM                 
   <chr>                    
 1 City of London 001A      
 2 City of London 001B      
 3 City of London 001C      
 4 City of London 001E      
 5 Barking and Dagenham 016A
 6 Barking and Dagenham 015A
 7 Barking and Dagenham 015B
 8 Barking and Dagenham 016B
 9 Barking and Dagenham 016C
10 Barking and Dagenham 015D
# … with 35,776 more rows
…
# A tibble: 1 × 1
  LSOA11NM           
  <chr>              
1 City of London 001B

What is also helpful in R is that we can select our columns by their field names by passing these field names to our selection brackets as a string. For a single column:

R code

# select the second column from the dataframe
lsoa_lookup["LSOA11NM"]

# A tibble: 35,786 × 1
   LSOA11NM                 
   <chr>                    
 1 City of London 001A      
 2 City of London 001B      
 3 City of London 001C      
 4 City of London 001E      
 5 Barking and Dagenham 016A
 6 Barking and Dagenham 015A
 7 Barking and Dagenham 015B
 8 Barking and Dagenham 016B
 9 Barking and Dagenham 016C
10 Barking and Dagenham 015D
# … with 35,776 more rows

Or for more than one columns, we can supply a combined vector:

R code

# select the first, second column from the dataframe
lsoa_lookup[c("LSOA11CD", "LSOA11NM")]

# A tibble: 35,786 × 2
# Groups:   LSOA11CD [34,747]
   LSOA11CD  LSOA11NM                 
   <chr>     <chr>                    
 1 E01000001 City of London 001A      
 2 E01000002 City of London 001B      
 3 E01000003 City of London 001C      
 4 E01000005 City of London 001E      
 5 E01000006 Barking and Dagenham 016A
 6 E01000007 Barking and Dagenham 015A
 7 E01000008 Barking and Dagenham 015B
 8 E01000009 Barking and Dagenham 016B
 9 E01000011 Barking and Dagenham 016C
10 E01000012 Barking and Dagenham 015D
# … with 35,776 more rows

To retrieve the second to the fourth column in our dataframe, we can use:

R code

# select the second to the fourth column from our dataframe
lsoa_lookup[, 2:4]

# A tibble: 35,786 × 3
   LSOA11NM                  LSOA21CD  LSOA21NM                 
   <chr>                     <chr>     <chr>                    
 1 City of London 001A       E01000001 City of London 001A      
 2 City of London 001B       E01000002 City of London 001B      
 3 City of London 001C       E01000003 City of London 001C      
 4 City of London 001E       E01000005 City of London 001E      
 5 Barking and Dagenham 016A E01000006 Barking and Dagenham 016A
 6 Barking and Dagenham 015A E01000007 Barking and Dagenham 015A
 7 Barking and Dagenham 015B E01000008 Barking and Dagenham 015B
 8 Barking and Dagenham 016B E01000009 Barking and Dagenham 016B
 9 Barking and Dagenham 016C E01000011 Barking and Dagenham 016C
10 Barking and Dagenham 015D E01000012 Barking and Dagenham 015D
# … with 35,776 more rows

# select the second to the fourth column from our dataframe
lsoa_lookup[2:4]

# A tibble: 35,786 × 3
   LSOA11NM                  LSOA21CD  LSOA21NM                 
   <chr>                     <chr>     <chr>                    
 1 City of London 001A       E01000001 City of London 001A      
 2 City of London 001B       E01000002 City of London 001B      
 3 City of London 001C       E01000003 City of London 001C      
 4 City of London 001E       E01000005 City of London 001E      
 5 Barking and Dagenham 016A E01000006 Barking and Dagenham 016A
 6 Barking and Dagenham 015A E01000007 Barking and Dagenham 015A
 7 Barking and Dagenham 015B E01000008 Barking and Dagenham 015B
 8 Barking and Dagenham 016B E01000009 Barking and Dagenham 016B
 9 Barking and Dagenham 016C E01000011 Barking and Dagenham 016C
10 Barking and Dagenham 015D E01000012 Barking and Dagenham 015D
# … with 35,776 more rows

We can also provide a combined list of the columns we want to extract:

R code

# select the second to the seventh columns from our dataframe
lsoa_lookup[c(2, 3, 4, 7)]

# A tibble: 35,786 × 4
   LSOA11NM                  LSOA21CD  LSOA21NM                  LAD22NM        
   <chr>                     <chr>     <chr>                     <chr>          
 1 City of London 001A       E01000001 City of London 001A       City of London 
 2 City of London 001B       E01000002 City of London 001B       City of London 
 3 City of London 001C       E01000003 City of London 001C       City of London 
 4 City of London 001E       E01000005 City of London 001E       City of London 
 5 Barking and Dagenham 016A E01000006 Barking and Dagenham 016A Barking and Da…
 6 Barking and Dagenham 015A E01000007 Barking and Dagenham 015A Barking and Da…
 7 Barking and Dagenham 015B E01000008 Barking and Dagenham 015B Barking and Da…
 8 Barking and Dagenham 016B E01000009 Barking and Dagenham 016B Barking and Da…
 9 Barking and Dagenham 016C E01000011 Barking and Dagenham 016C Barking and Da…
10 Barking and Dagenham 015D E01000012 Barking and Dagenham 015D Barking and Da…
# … with 35,776 more rows
…
As well as a negative selection:

R code

# select outside the second to the fourth row from our dataframe
lsoa_lookup[-2:-4, ]

# A tibble: 35,783 × 10
# Groups:   LSOA11CD [34,744]
   LSOA11CD LSOA1…¹ LSOA2…² LSOA2…³ CHGIND LAD22CD LAD22NM LAD22…⁴ Objec…⁵     n
   <chr>    <chr>   <chr>   <chr>   <chr>  <chr>   <chr>   <chr>     <dbl> <dbl>
 1 E010000… City o… E01000… City o… U      E09000… City o… <NA>          1     1
 2 E010000… Barkin… E01000… Barkin… U      E09000… Barkin… <NA>          5     1
 3 E010000… Barkin… E01000… Barkin… U      E09000… Barkin… <NA>          6     1
 4 E010000… Barkin… E01000… Barkin… U      E09000… Barkin… <NA>          7     1
 5 E010000… Barkin… E01000… Barkin… U      E09000… Barkin… <NA>          8     1
 6 E010000… Barkin… E01000… Barkin… U      E09000… Barkin… <NA>          9     1
 7 E010000… Barkin… E01000… Barkin… U      E09000… Barkin… <NA>         10     1
 8 E010000… Barkin… E01000… Barkin… U      E09000… Barkin… <NA>         11     1
 9 E010000… Barkin… E01000… Barkin… U      E09000… Barkin… <NA>         12     1
10 E010000… Barkin… E01000… Barkin… U      E09000… Barkin… <NA>         13     1
# … with 35,773 more rows, and abbreviated variable names ¹​LSOA11NM, ²​LSOA21CD,
#   ³​LSOA21NM, ⁴​LAD22NMW, ⁵​ObjectId
…
For columns, we use the select() function that enables us to select one or more columns using their column names.

For rows, we use the slice() function that enables us to select one or more rows using their position (i.e. similar to the process above).

For both functions, we can also use the negative - approach we saw in the base R approach to ‘reverse a selection’.

R code

# select column two
dplyr::select(lsoa_lookup, 2)

Adding missing grouping variables: `LSOA11CD`

# A tibble: 35,786 × 2
# Groups:   LSOA11CD [34,747]
   LSOA11CD  LSOA11NM                 
   <chr>     <chr>                    
 1 E01000001 City of London 001A      
 2 E01000002 City of London 001B      
 3 E01000003 City of London 001C      
 4 E01000005 City of London 001E      
 5 E01000006 Barking and Dagenham 016A
 6 E01000007 Barking and Dagenham 015A
 7 E01000008 Barking and Dagenham 015B
 8 E01000009 Barking and Dagenham 016B
 9 E01000011 Barking and Dagenham 016C
10 E01000012 Barking and Dagenham 015D
# … with 35,776 more rows

# select everything outside column two
dplyr::select(lsoa_lookup, -2)

# A tibble: 35,786 × 9
# Groups:   LSOA11CD [34,747]
   LSOA11CD  LSOA21CD  LSOA21NM     CHGIND LAD22CD LAD22NM LAD22…¹ Objec…²     n
   <chr>     <chr>     <chr>        <chr>  <chr>   <chr>   <chr>     <dbl> <dbl>
 1 E01000001 E01000001 City of Lon… U      E09000… City o… <NA>          1     1
 2 E01000002 E01000002 City of Lon… U      E09000… City o… <NA>          2     1
 3 E01000003 E01000003 City of Lon… U      E09000… City o… <NA>          3     1
 4 E01000005 E01000005 City of Lon… U      E09000… City o… <NA>          4     1
 5 E01000006 E01000006 Barking and… U      E09000… Barkin… <NA>          5     1
 6 E01000007 E01000007 Barking and… U      E09000… Barkin… <NA>          6     1
 7 E01000008 E01000008 Barking and… U      E09000… Barkin… <NA>          7     1
 8 E01000009 E01000009 Barking and… U      E09000… Barkin… <NA>          8     1
 9 E01000011 E01000011 Barking and… U      E09000… Barkin… <NA>          9     1
10 E01000012 E01000012 Barking and… U      E09000… Barkin… <NA>         10     1
# … with 35,776 more rows, and abbreviated variable names ¹​LAD22NMW, ²​ObjectId

# select the LSOA11CD column
dplyr::select(lsoa_lookup, LSOA11CD)

# A tibble: 35,786 × 1
# Groups:   LSOA11CD [34,747]
   LSOA11CD 
   <chr>    
 1 E01000001
 2 E01000002
 3 E01000003
 4 E01000005
 5 E01000006
 6 E01000007
 7 E01000008
 8 E01000009
 9 E01000011
10 E01000012
# … with 35,776 more rows

# select everything outside the LSOA11CD
dplyr::select(lsoa_lookup, -LSOA11CD)

Adding missing grouping variables: `LSOA11CD`

# A tibble: 35,786 × 10
# Groups:   LSOA11CD [34,747]
   LSOA11CD LSOA1…¹ LSOA2…² LSOA2…³ CHGIND LAD22CD LAD22NM LAD22…⁴ Objec…⁵     n
   <chr>    <chr>   <chr>   <chr>   <chr>  <chr>   <chr>   <chr>     <dbl> <dbl>
 1 E010000… City o… E01000… City o… U      E09000… City o… <NA>          1     1
 2 E010000… City o… E01000… City o… U      E09000… City o… <NA>          2     1
 3 E010000… City o… E01000… City o… U      E09000… City o… <NA>          3     1
 4 E010000… City o… E01000… City o… U      E09000… City o… <NA>          4     1
 5 E010000… Barkin… E01000… Barkin… U      E09000… Barkin… <NA>          5     1
 6 E010000… Barkin… E01000… Barkin… U      E09000… Barkin… <NA>          6     1
 7 E010000… Barkin… E01000… Barkin… U      E09000… Barkin… <NA>          7     1
 8 E010000… Barkin… E01000… Barkin… U      E09000… Barkin… <NA>          8     1
 9 E010000… Barkin… E01000… Barkin… U      E09000… Barkin… <NA>          9     1
10 E010000… Barkin… E01000… Barkin… U      E09000… Barkin… <NA>         10     1
# … with 35,776 more rows, and abbreviated variable names ¹​LSOA11NM, ²​LSOA21CD,
#   ³​LSOA21NM, ⁴​LAD22NMW, ⁵​ObjectId
…
