GEOG0030
…
Warning: attribute variables are assumed to be spatially constant throughout
all geometries

# inspect
measurement_sites_thiessen_df

Simple feature collection with 103 features and 2 fields
Geometry type: GEOMETRY
Dimension:     XY
Bounding box:  xmin: 503574.2 ymin: 155850.8 xmax: 561956.7 ymax: 200933.6
Projected CRS: OSGB36 / British National Grid
# A tibble: 103 × 3
   code    no2                                                          geometry
 * <chr> <dbl>                                                    <GEOMETRY [m]>
 1 BG1    16.8 POLYGON ((547785.5 187913.4, 557897 187404.3, 550800.7 184315.1,…
 2 BG2    20.6 MULTIPOLYGON (((543729.1 183422.7, 543923.7 183583, 543960.2 183…
 3 BL0    25.7 POLYGON ((529120.3 182395, 529101.2 184092.5, 531261 183754.7, 5…
 4 BQ7    16.1 MULTIPOLYGON (((546347 181055.1, 546593.8 181106.4, 546697.1 181…
 5 BT4    43.1 POLYGON ((516082 187365.6, 520958.9 189405.3, 521236.1 184358.2,…
 6 BT5    28.0 POLYGON ((523877.3 190896.9, 524273.2 190424, 525686.9 187185.8,…
 7 BT6    27.7 POLYGON ((522237.8 181852.6, 519969.8 183532.7, 519912.6 183741.…
 8 BT8    28.5 POLYGON ((522982.8 184472, 525686.9 187185.8, 526408.6 186420, 5…
 9 BX1    17.6 MULTIPOLYGON (((550063.2 169311.6, 550099.6 169246.6, 550115.1 1…
10 BX2    15.9 MULTIPOLYGON (((548349.8 175998.9, 549623.4 180763, 550028.2 180…
# ℹ 93 more rows
…
